{
    "data": {
        "microblogList": [
            {
                "id": 1,
                "content":"分享内容",
                "type":"原创",
                "sendAccount":"发布账号",
                "time":"2014/10/29 10:10:10",
                "forwardNo":"111111",
                "commentNo":"111",
                "goodNo":"11111"
            },{
                "id": 2,
                "content":"分享内容",
                "type":"原创",
                "sendAccount":"发布账号",
                "time":"2014/10/29 10:10:10",
                "forwardNo":"转发数",
                "commentNo":"评论数",
                "goodNo":"赞数"
            },{
                "id": 3,
                "content":"分享内容",
                "type":"原创",
                "sendAccount":"发布账号",
                "time":"2014/10/29 10:10:10",
                "forwardNo":"转发数",
                "commentNo":"评论数",
                "goodNo":"赞数"
            },{
                "id": 4,
                "content":"分享内容",
                "type":"原创",
                "sendAccount":"发布账号",
                "time":"2014/10/29 10:10:10",
                "forwardNo":"转发数",
                "commentNo":"评论数",
                "goodNo":"赞数"
            },{
                "id": 2,
                "content":"分享内容",
                "type":"原创",
                "sendAccount":"发布账号",
                "time":"2014/10/29 10:10:10",
                "forwardNo":"转发数",
                "commentNo":"评论数",
                "goodNo":"赞数"
            },{
                "id": 3,
                "content":"分享内容",
                "type":"原创",
                "sendAccount":"发布账号",
                "time":"2014/10/29 10:10:10",
                "forwardNo":"转发数",
                "commentNo":"评论数",
                "goodNo":"赞数"
            },{
                "id": 4,
                "content":"分享内容",
                "type":"原创",
                "sendAccount":"发布账号",
                "time":"2014/10/29 10:10:10",
                "forwardNo":"转发数",
                "commentNo":"评论数",
                "goodNo":"赞数"
            }
        ]
    },
    "page": {
        "currentPage": 1,
        "end": 10,
        "pages": 2,
        "pernum": 10,
        "start": 0,
        "total": 20
    }
}