{"data":{"newsList":[{"id":1,"title":"测试测试测试测试测试测试测试测试测试测试测试","type":"普通新闻","date": 1419338152595,"state":"已发布","author":"system"},{"id":2,"title":"测测试测试试","type":"封面新闻","date": 1419338152595,"state":"已发布","author":"system"}]},"page":{"currentPage":1,"end":10,"pages":2,"pernum":10,"start":0,"total":20}}