{"members":{"memberList":[{"birthday":"2014-11-26","cn":"王东鸣","creator":"","deletable":"true","deptId":"ba6b8c1d5dba46fd9a42c7e33634606f","deptName":"办公室","deptRelationId":"7c79d2373c26463f9317fd96a5e6d043","editable":"true","fax":"022-876543","hometelephone":"15715160275","id":"0c21c17f65714860b39fec48dc5804f8","info":"梦想在哪里","mail":"yangle@c-platform.com","mobile":"15715160275","password":"97b96b13a6aaf52b","photo":"http://58.213.28.162:8088/group1/M00/00/00/wKgNyFRsFlyAR3kIAAAjr2BQCJI398.png","photoSign":"欲穷千里目，更上一层楼","pinyin":"wangdongming","postaladdress":"","qq":"","roleId":"2","roleName":"主管","roleRelationId":"719f99c4252a47febc1b3b434e2b0f07","sequ":0,"sex":" ","state":"1","uid":"0220000008","usable":"true"},{"cn":"姜君","creator":"","deletable":"true","deptId":"ba6b8c1d5dba46fd9a42c7e33634606f","deptName":"办公室","deptRelationId":"279557d3758240549f90cedf9a118630","editable":"true","fax":"022-876545","hometelephone":"13851588863","id":"10fbedb3ae004148964495bf77694e66","info":"梦想在哪里","mail":"jiang.jun123@zte.com.cn","mobile":"13851588863","password":"97b96b13a6aaf52b","photo":"","photoSign":"欲穷千里目，更上一层楼","pinyin":"jiangjun","postaladdress":"","qq":"","roleId":"1","roleName":"员工","roleRelationId":"0db7df16d2e145649c68d9c22feeb23f","sequ":0,"sex":" ","state":"1","uid":"0220000033","usable":"true"},{"cn":"唐喜","creator":"","deletable":"true","deptId":"ba6b8c1d5dba46fd9a42c7e33634606f","deptName":"办公室","deptRelationId":"9188d7f8aec54754ad4aeaf7a34b0592","editable":"true","fax":"022-876546","hometelephone":"18602955965","id":"41898811aa63462b95e7b1247a42dc5a","info":"梦想在哪里","mail":"tang.xi110@zte.com.cn","mobile":"18602955965","password":"97b96b13a6aaf52b","photoSign":"欲穷千里目，更上一层楼","pinyin":"tangxi","roleId":"1","roleName":"员工","roleRelationId":"e2a76ec2a2d34feaad5ec12cef9cbc04","sequ":0,"state":"true","uid":"0220000044","usable":"true"},{"cn":"亢晓飞","creator":"","deletable":"true","deptId":"8c7c2ba7366a44308e739eeb5215b106","deptName":"技术部","deptRelationId":"5551f3e2741042b5be2a3a6d3f718f3b","editable":"true","fax":"022-876551","hometelephone":"18857192838","id":"dcc7eebc27a649838304a8296f52f2ec","info":"梦想在哪里","l":"123","mail":"kang.xiaofei3@zte.com.cn","mobile":"18857192838","password":"97b96b13a6aaf52b","photo":"","photoSign":"欲穷千里目，更上一层楼","pinyin":"kangxiaofei","postaladdress":"","qq":"","roleId":"1","roleName":"员工","roleRelationId":"a86437653f7e4ecfabc30f188dae6bd3","sequ":0,"sex":" ","state":"1","uid":"0220000269","usable":"true"},{"cn":"陈林","creator":"","deletable":"true","deptId":"8c7c2ba7366a44308e739eeb5215b106","deptName":"技术部","deptRelationId":"eb773a55072c4ec5b018d6289d44044f","editable":"true","fax":"022-876552","hometelephone":"15151831245","id":"0acf2dad21a94808b40f75043d8cb72a","info":"梦想在哪里","mail":"chen.lin85@zte.com.cn","mobile":"15151831245","password":"97b96b13a6aaf52b","photoSign":"欲穷千里目，更上一层楼","pinyin":"chenlin","roleId":"1","roleName":"员工","roleRelationId":"15e69c71f157466dbe5d89041b2d38d1","sequ":0,"state":"true","uid":"0220000357","usable":"true"},{"cn":"徐志刚","creator":"","deletable":"true","deptId":"c1","deptName":"中兴zte","deptRelationId":"25bb7075ffc74ebcb234351f4cfe85f5","editable":"true","fax":"022-876547","hometelephone":"18025367610","id":"1b131b7f6ac04c5b9474ea254867cac0","info":"梦想在哪里","mail":"xu.zhigang16@zte.com.cn","mobile":"18025367610","password":"97b96b13a6aaf52b","photo":"","photoSign":"欲穷千里目，更上一层楼","pinyin":"xuzhigang","postaladdress":"","qq":"","roleId":"1","roleName":"员工","roleRelationId":"04215b8f061c4527b99199ecd875b19c","sequ":0,"sex":" ","state":"1","uid":"0220000465","usable":"true"},{"cn":"黄红梅","creator":"","deletable":"true","deptId":"ba6b8c1d5dba46fd9a42c7e33634606f","deptName":"办公室","deptRelationId":"f563cf87c7844183a2f967a13816d78a","editable":"true","fax":"022-876548","hometelephone":"18138843662","id":"80d338e3e6194d52aafd72ff46d43782","info":"梦想在哪里","mail":"huang.hongmei33@zte.com.cn","mobile":"18138843662","password":"97b96b13a6aaf52b","photoSign":"欲穷千里目，更上一层楼","pinyin":"huanghongmei","roleId":"1","roleName":"员工","roleRelationId":"12138e21223a4a3bbdf3c522b3a8bbdf","sequ":0,"state":"true","uid":"0220000560","usable":"true"},{"birthday":"2014-12-07","cn":"qq","creator":"","deletable":"true","deptId":"8c7c2ba7366a44308e739eeb5215b106","deptName":"技术部","deptRelationId":"8fd4d4f9e1d2472e8ffb1f2861c56d74","editable":"true","fax":"","hometelephone":"","id":"b19f922f447a4e5fa3b8890d7b94f27d","info":"","l":"1","mail":"11@11.com","mobile":"11111111111","password":"1","photo":"","photoSign":"","pinyin":"qq","postaladdress":"","qq":"","roleId":"2","roleName":"主管","roleRelationId":"f2aeba08237946c0811b81c50905ab2e","sequ":0,"sex":"1","state":"1","uid":"1111","usable":"true"}],"next":2,"offset":0,"pageSize":10,"previous":0,"totalPage":1,"totalRecord":8},"page":{"currentPage":1,"end":10,"pages":2,"pernum":10,"start":0,"total":20},"res":{"reCode":"1","resMessage":"Operation is successful"}}